Wokwi/wokwi-logic (44).vcd
$version Generated by Wokwi.com $end
$date Mon, 11 Aug 2025 02:38:51 GMT $end
$timescale 1ns $end
$scope module logic $end
$var wire 1 ! D0 $end
$var wire 1 " D1 $end
$var wire 1 # D2 $end
$var wire 1 $ D3 $end
$var wire 1 % D4 $end
$var wire 1 & D5 $end
$upscope $end
$enddefinitions $end
#0
0!
#0
0"
#0
0#
#0
0$
#0
0%
#0
0&
#51146000
1$
#51157250
0$
#55833875
1$
#55845125
0$
#60517525
1$
#60528775
0$
#60849750
1$
#60861000
0$
#61040750
1$
#61052000
0$
#61219500
1$
#61230750
0$
#61413250
1$
#61424500
0$
#61591500
1$
#61602750
0$
#61787975
1$
#61799225
0$
#61966475
1$
#61977725
0$
#64164425
1$
#64175675
0$
#64342675
1$
#64353925
0$
#64877400
1!
#64914400
1"
#64951400
1#
#115274650
1$
#115285900
0$
#119958275
1$
#119969525
0$
#124641925
1$
#124653175
0$
#124974150
1$
#124985400
0$
#125165150
1$
#125176400
0$
#125343650
1$
#125354900
0$
#125537400
1$
#125548650
0$
#125715650
1$
#125726900
0$
#125908375
1$
#125919625
0$
#126086875
1$
#126098125
0$
#128284825
1$
#128296075
0$
#128463075
1$
#128474325
0$
#128656325
1$
#128667575
0$
#128839050
1$
#128850300
0$
#130996000
1%
#131060250
1$
#131071500
0$
#131238250
1$
#131249500
0$
#131431250
1$
#131442500
0$
#131609500
1$
#131620750
0$
#131806725
1$
#131817975
0$
#131984725
1$
#131995975
0$
#132177475
1$
#132188725
0$
#132355725
1$
#132366975
0$
#132548975
1$
#132560225
0$
#132727725
1$
#132738975
0$
#132920950
1$
#132932200
0$
#133099700
1$
#133110950
0$
#133292450
1$
#133303700
0$
#133470950
1$
#133482200
0$
#133663950
1$
#133675200
0$
#133846425
1$
#133857675
0$
#134039425
1$
#134050675
0$
#134217425
1$
#134228675
0$
#134410425
1$
#134421675
0$
#134588675
1$
#134599925
0$
#134785900
1$
#134797150
0$
#134964150
1$
#134975400
0$
#135156900
1$
#135168150
0$
#135335650
1$
#135346900
0$
#135528650
1$
#135539900
0$
#135707150
1$
#135718400
0$
#135900625
1$
#135911875
0$
#136078875
1$
#136090125
0$
#512784700
1&
#1024781400
0&
#1536772850
1&
#2048743050
0&
#2560734500
1&
#3072731200
0&
#3122260150
0!
#3122324875
1!
#3122337300
0!
#3122340850
1!
#3122400225
0!
#3122448075
1!
#3122474075
0!
#3122538800
1!
#3122576025
0!
#3122611225
1!
#3122654125
0!
#3122693350
1!
#3122713675
0!
#3122741725
1!
#3122783050
0!
#3122794250
1!
#3122819800
0!
#3122847200
1!
#3122857675
0!
#3122881350
1!
#3122899175
0!
#3122945450
1!
#3122961400
0!
#3123028900
1!
#3123056900
0!
#3123060950
1!
#3123066200
0!
#3123132350
1!
#3123194675
0!
#3123246000
1!
#3123309125
0!
#3123366200
1!
#3123388500
0!
#3123412900
1!
#3123472150
0!
#3123483825
1!
#3123509225
0!
#3123523275
1!
#3123580200
0!
#3123591025
1!
#3123614100
0!
#3123641075
1!
#3123703000
0!
#3123707875
1!
#3123739275
0!
#3123802950
1!
#3123830825
0!
#3123854925
1!
#3123894950
0!
#3123905275
1!
#3123944150
0!
#3123962825
1!
#3123983300
0!
#3124052425
1!
#3124090625
0!
#3124139975
1!
#3124147550
0!
#3124206600
1!
#3124244150
0!
#3584719650
1&
#4096689850
0&
#4316634750
1!
#4316666925
0!
#4316696300
1!
#4316719475
0!
#4316756275
1!
#4316780575
0!
#4316827975
1!
#4316866650
0!
#4316916575
1!
#4316928050
0!
#4316956050
1!
#4316962125
0!
#4316966550
1!
#4317027100
0!
#4317072775
1!
#4317073225
0!
#4317094200
1!
#4317131050
0!
#4317156700
1!
#4317211900
0!
#4317213025
1!
#4317216825
0!
#4317254000
1!
#4317297725
0!
#4317355300
1!
#4317392650
0!
#4317417775
1!
#4317425725
0!
#4317449875
1!
#4317485875
0!
#4317505500
1!
#4317563625
0!
#4317620075
1!
#4317677175
0!
#4317690175
1!
#4317727375
0!
#4317765675
1!
#4317793450
0!
#4317845175
1!
#4317861300
0!
#4317894375
1!
#4317918000
0!
#4317921700
1!
#4317933275
0!
#4317988950
1!
#4318049250
0!
#4318106925
1!
#4318124475
0!
#4318154275
1!
#4318176500
0!
#4318179550
1!
#4318238225
0!
#4318281050
1!
#4318300500
0!
#4318361500
1!
#4318387725
0!
#4318408350
1!
#4318423750
0!
#4318480025
1!
#4318535300
0!
#4318544200
1!
#4318571850
0!
#4318600650
1!
#4318605225
0!
#4318664750
1!
#4318669325
0!
#4318704900
1!
#4318715575
0!
#4318735750
1!
#4318743250
0!
#4318756875
1!
#4345701875
0%
#4345766625
1$
#4345777875
0$
#4345945125
1$
#4345956375
0$
#4348095575
1%
#4348159825
1$
#4348171075
0$
#4348338075
1$
#4348349325
0$
#4348531075
1$
#4348542325
0$
#4348713050
1$
#4348724300
0$
#4348906050
1$
#4348917300
0$
#4349084050
1$
#4349095300
0$
#4349277050
1$
#4349288300
0$
#4349455300
1$
#4349466550
0$
#4349648300
1$
#4349659550
0$
#4349827025
1$
#4349838275
0$
#4350020025
1$
#4350031275
0$
#4350198025
1$
#4350209275
0$
#4350391025
1$
#4350402275
0$
#4350569275
1$
#4350580525
0$
#4350763000
1$
#4350774250
0$
#4350941750
1$
#4350953000
0$
#4351159000
1$
#4351170250
0$
#4351337750
1$
#4351349000
0$
#4608712800
1&
#5120669000
0&
#5632664200
1&
#6144674900
0&
#6656670100
1&
#6920755025
0"
#6920760075
1"
#6920761850
0"
#6920776675
1"
#6920785675
0"
#6920795950
1"
#6920802625
0"
#6920814350
1"
#6920831875
0"
#6920841825
1"
#6920844975
0"
#6920847350
1"
#6920864250
0"
#6920869775
1"
#6920882925
0"
#6920898775
1"
#6920909950
0"
#6920916575
1"
#6920922400
0"
#6920938375
1"
#6920943775
0"
#6920958000
1"
#6920978625
0"
#6920992075
1"
#6921011850
0"
#6921030275
1"
#6921037350
0"
#6921054700
1"
#6921071825
0"
#6921083500
1"
#6921099050
0"
#6921114175
1"
#6921125475
0"
#6921132775
1"
#6921135975
0"
#6921148275
1"
#6921159850
0"
#6921181750
1"
#6921202025
0"
#6921216425
1"
#6921237375
0"
#6921249875
1"
#6921260725
0"
#6921281350
1"
#6921290250
0"
#6921292225
1"
#6921297275
0"
#6921304325
1"
#6921312850
0"
#6921325250
1"
#6921346825
0"
#6921353325
1"
#6921362725
0"
#6921383100
1"
#6921392025
0"
#6921409525
1"
#6921426475
0"
#6921432750
1"
#6921449975
0"
#6921462125
1"
#6921469275
0"
#6921482775
1"
#6921504275
0"
#6921520150
1"
#6921530400
0"
#6921538000
1"
#6921558550
0"
#6921575875
1"
#6921585625
0"
#6921589975
1"
#6921592425
0"
#6921596900
1"
#6921611675
0"
#6921618225
1"
#6921636800
0"
#6921657775
1"
#6921663750
0"
#6921678925
1"
#6921681700
0"
#6921692700
1"
#6921712300
0"
#6921733700
1"
#6921734775
0"
#6921739575
1"
#6921755350
0"
#6921757125
1"
#6921766425
0"
#6921774925
1"
#6921776250
0"
#6921779600
1"
#6921781350
0"
#6921790100
1"
#6921802975
0"
#6921809000
1"
#6921818075
0"
#6921827775
1"
#6921843900
0"
#6921856850
1"
#6921869800
0"
#6921889300
1"
#6921906175
0"
#6921925350
1"
#6921945825
0"
#6921963875
1"
#6921981875
0"
#6921999950
1"
#6922017000
0"
#6922025650
1"
#6922028525
0"
#6922040150
1"
#6922056975
0"
#6922067550
1"
#6922083500
0"
#6922098025
1"
#6922104000
0"
#6922125900
1"
#6922136775
0"
#6922157400
1"
#6922157600
0"
#6922159225
1"
#6922168525
0"
#6922180675
1"
#6922191050
0"
#6922200150
1"
#6922215375
0"
#6922224450
1"
#6922243075
0"
#6922250025
1"
#6922264750
0"
#6922273100
1"
#6922282800
0"
#6922296600
1"
#6922314425
0"
#6922321000
1"
#6922331075
0"
#6922338875
1"
#6922348600
0"
#6922363300
1"
#6922365000
0"
#6922381700
1"
#6922396100
0"
#6922409875
1"
#6922418475
0"
#6922432575
1"
#6922451650
0"
#6922466075
1"
#6922478600
0"
#6922494600
1"
#6922500250
0"
#6922505375
1"
#6922525650
0"
#6922533800
1"
#6922534450
0"
#6922550500
1"
#6922568775
0"
#6922580100
1"
#6922592850
0"
#6922608650
1"
#6922611825
0"
#6922614325
1"
#6922626400
0"
#6922642050
1"
#6922662425
0"
#6922670200
1"
#6922675700
0"
#6922682225
1"
#6922700975
0"
#6922705650
1"
#6922720575
0"
#6922737200
1"
#6922758225
0"
#6922760350
1"
#6922776200
0"
#6922787275
1"
#6922801475
0"
#6922816450
1"
#6922820925
0"
#6922829700
1"
#6922846025
0"
#6922854000
1"
#6922862275
0"
#6922883875
1"
#6922903100
0"
#6922916475
1"
#6922924825
0"
#6922933825
1"
#6922954600
0"
#6922959725
1"
#6922964350
0"
#6922984675
1"
#6922998825
0"
#6923003050
1"
#6923012700
0"
#6923020900
1"
#6923023525
0"
#6923044800
1"
#6923048525
0"
#6923066925
1"
#6923084950
0"
#6950635750
0%
#6950700500
1$
#6950711750
0$
#6950879000
1$
#6950890250
0$
#6953029450
1%
#6953093700
1$
#6953104950
0$
#6953271950
1$
#6953283200
0$
#6953464950
1$
#6953476200
0$
#6953646925
1$
#6953658175
0$
#6953839925
1$
#6953851175
0$
#6954017925
1$
#6954029175
0$
#6954210925
1$
#6954222175
0$
#6954389175
1$
#6954400425
0$
#6954582175
1$
#6954593425
0$
#6954760900
1$
#6954772150
0$
#6954953900
1$
#6954965150
0$
#6955131900
1$
#6955143150
0$
#6955324900
1$
#6955336150
0$
#6955503150
1$
#6955514400
0$
#6955696875
1$
#6955708125
0$
#6955875625
1$
#6955886875
0$
#6956092875
1$
#6956104125
0$
#6956271375
1$
#6956282625
0$
#7018083775
1"
#7018105850
0"
#7018107825
1"
#7018125400
0"
#7018160200
1"
#7018160575
0"
#7018190300
1"
#7018195775
0"
#7018216575
1"
#7018273800
0"
#7018319100
1"
#7018361400
0"
#7018379775
1"
#7018437325
0"
#7018477700
1"
#7018503875
0"
#7018537900
1"
#7018566750
0"
#7018584375
1"
#7018623100
0"
#7018657100
1"
#7018663875
0"
#7018689725
1"
#7018735850
0"
#7018774700
1"
#7018810725
0"
#7018862300
1"
#7018872275
0"
#7018919100
1"
#7018973075
0"
#7018979250
1"
#7019004325
0"
#7019047225
1"
#7019092400
0"
#7019150175
1"
#7019201600
0"
#7019256225
1"
#7019305175
0"
#7019364400
1"
#7019371525
0"
#7019383325
1"
#7019404425
0"
#7019422975
1"
#7019459425
0"
#7019501775
1"
#7019503400
0"
#7019534600
1"
#7019549775
0"
#7019550750
1"
#7019593350
0"
#7019608675
1"
#7019617325
0"
#7019661950
1"
#7019672975
0"
#7019707450
1"
#7019707700
0"
#7019738250
1"
#7019760100
0"
#7019810525
1"
#7019850600
0"
#7019864000
1"
#7019918025
0"
#7019940475
1"
#7019947500
0"
#7019971600
1"
#7019978850
0"
#7019993675
1"
#7020007375
0"
#7020017050
1"
#7020073950
0"
#7020109025
1"
#7020140350
0"
#7020197575
1"
#7168647050
0&
#7559660525
0"
#7559662050
1"
#7559674350
0"
#7559681675
1"
#7559699725
0"
#7559725675
1"
#7559745075
0"
#7559749450
1"
#7559769700
0"
#7559788500
1"
#7559792225
0"
#7559794900
1"
#7559809325
0"
#7559814875
1"
#7559818375
0"
#7559841550
1"
#7559851500
0"
#7559868100
1"
#7559885350
0"
#7559889000
1"
#7559909625
0"
#7559914175
1"
#7559937825
0"
#7559942575
1"
#7559952325
0"
#7559971050
1"
#7559976050
0"
#7559994275
1"
#7560003050
0"
#7560019575
1"
#7560043925
0"
#7560044675
1"
#7560070100
0"
#7560078875
1"
#7560082800
0"
#7560087925
1"
#7560091550
0"
#7560114975
1"
#7560129575
0"
#7560135750
1"
#7560139650
0"
#7560144125
1"
#7560145000
0"
#7560157900
1"
#7560166425
0"
#7560170875
1"
#7560196350
0"
#7560203575
1"
#7560229625
0"
#7560231775
1"
#7560242475
0"
#7560257425
1"
#7560258225
0"
#7560272350
1"
#7560296950
0"
#7560323875
1"
#7560324125
0"
#7560341175
1"
#7560343050
0"
#7560346300
1"
#7560352650
0"
#7560374875
1"
#7560381275
0"
#7560388125
1"
#7560411575
0"
#7560433275
1"
#7560447825
0"
#7560456475
1"
#7560460950
0"
#7560467500
1"
#7560486100
0"
#7560497175
1"
#7560508150
0"
#7560513550
1"
#7560522275
0"
#7560525350
1"
#7560529500
0"
#7560534100
1"
#7560553425
0"
#7560569500
1"
#7560585975
0"
#7560609800
1"
#7560636500
0"
#7560644075
1"
#7560648200
0"
#7560666675
1"
#7560683375
0"
#7560685575
1"
#7560705900
0"
#7560730650
1"
#7560749575
0"
#7560749975
1"
#7560771725
0"
#7560797325
1"
#7560799725
0"
#7560823375
1"
#7560838350
0"
#7560839875
1"
#7560840825
0"
#7560853600
1"
#7560868200
0"
#7560869175
1"
#7560873100
0"
#7560884500
1"
#7560897225
0"
#7560898200
1"
#7560905675
0"
#7560911350
1"
#7560930500
0"
#7560935475
1"
#7560961500
0"
#7560982225
1"
#7560988275
0"
#7560997250
1"
#7561013150
0"
#7561036700
1"
#7561045400
0"
#7561050350
1"
#7561077025
0"
#7561091925
1"
#7561094675
0"
#7561120600
1"
#7561129925
0"
#7561130225
1"
#7561148525
0"
#7561168550
1"
#7561178100
0"
#7561201425
1"
#7561207325
0"
#7561221800
1"
#7561230350
0"
#7561247000
1"
#7561273000
0"
#7561274900
1"
#7561275325
0"
#7561276525
1"
#7561286850
0"
#7561310450
1"
#7561321875
0"
#7561327550
1"
#7561342575
0"
#7561347150
1"
#7561363975
0"
#7561382225
1"
#7561400950
0"
#7561413525
1"
#7561434900
0"
#7561438700
1"
#7561451725
0"
#7561463425
1"
#7561464125
0"
#7561474500
1"
#7561491275
0"
#7561500475
1"
#7561519450
0"
#7561531975
1"
#7561544100
0"
#7561559325
1"
#7561583525
0"
#7561604150
1"
#7561607200
0"
#7561608275
1"
#7561611050
0"
#7589620025
0%
#7589684775
1$
#7589696025
0$
#7589863275
1$
#7589874525
0$
#7592013725
1%
#7592077975
1$
#7592089225
0$
#7592256225
1$
#7592267475
0$
#7592449225
1$
#7592460475
0$
#7592631200
1$
#7592642450
0$
#7592824200
1$
#7592835450
0$
#7593002200
1$
#7593013450
0$
#7593195200
1$
#7593206450
0$
#7593373450
1$
#7593384700
0$
#7593566450
1$
#7593577700
0$
#7593745175
1$
#7593756425
0$
#7593938175
1$
#7593949425
0$
#7594116175
1$
#7594127425
0$
#7594309175
1$
#7594320425
0$
#7594487425
1$
#7594498675
0$
#7594681150
1$
#7594692400
0$
#7594859900
1$
#7594871150
0$
#7595077150
1$
#7595088400
0$
#7595255650
1$
#7595266900
0$
#7649960050
1"
#7649989225
0"
#7650096075
1"
#7650137175
0"
#7650218100
1"
#7650251300
0"
#7650340825
1"
#7650362725
0"
#7650441950
1"
#7650502250
0"
#7650606450
1"
#7650655325
0"
#7650761150
1"
#7650791700
0"
#7650842900
1"
#7650962550
0"
#7651040175
1"
#7651042075
0"
#7651106200
1"
#7651180575
0"
#7651270825
1"
#7651341275
0"
#7651347750
1"
#7651350050
0"
#7651375425
1"
#7651415375
0"
#7651424525
1"
#7651470875
0"
#7651474075
1"
#7651513125
0"
#7651628800
1"
#7651711450
0"
#7651803850
1"
#7680610250
1&
#8192620950
0&
#8413766525
0#
#8413779175
1#
#8413803725
0#
#8413837350
1#
#8413853375
0#
#8413861025
1#
#8413896425
0#
#8413935225
1#
#8413982150
0#
#8414016600
1#
#8414029900
0#
#8414073325
1#
#8414109500
0#
#8414158950
1#
#8414175975
0#
#8414195825
1#
#8414230950
0#
#8414269550
1#
#8414315125
0#
#8414361825
1#
#8414411150
0#
#8414447125
1#
#8414502475
0#
#8414535400
1#
#8414555775
0#
#8414608250
1#
#8414629975
0#
#8414683625
1#
#8414740100
0#
#8414771075
1#
#8414772250
0#
#8414793775
1#
#8414843625
0#
#8414884675
1#
#8414937600
0#
#8414993075
1#
#8415041650
0#
#8415071950
1#
#8415111850
0#
#8415164875
1#
#8415191050
0#
#8415227975
1#
#8415250250
0#
#8415254050
1#
#8415313450
0#
#8415350575
1#
#8415394950
0#
#8415418975
1#
#8415468250
0#
#8415515175
1#
#8415553200
0#
#8415598825
1#
#8415605425
0#
#8415617825
1#
#8415671075
0#
#8415691325
1#
#8415692425
0#
#8415734050
1#
#8415792775
0#
#8415852600
1#
#8415902200
0#
#8415944825
1#
#8415951775
0#
#8415964800
1#
#8415973750
0#
#8416011425
1#
#8416017625
0#
#8416037900
1#
#8416042375
0#
#8416049000
1#
#8416064475
0#
#8416092775
1#
#8416129525
0#
#8443598675
0%
#8443663425
1$
#8443674675
0$
#8443841925
1$
#8443853175
0$
#8445992375
1%
#8446056625
1$
#8446067875
0$
#8446234875
1$
#8446246125
0$
#8446427875
1$
#8446439125
0$
#8446609850
1$
#8446621100
0$
#8446802850
1$
#8446814100
0$
#8446980850
1$
#8446992100
0$
#8447173850
1$
#8447185100
0$
#8447352100
1$
#8447363350
0$
#8447545100
1$
#8447556350
0$
#8447723825
1$
#8447735075
0$
#8447916825
1$
#8447928075
0$
#8448094825
1$
#8448106075
0$
#8448287825
1$
#8448299075
0$
#8448466075
1$
#8448477325
0$
#8448659800
1$
#8448671050
0$
#8448838550
1$
#8448849800
0$
#8449055800
1$
#8449067050
0$
#8449234300
1$
#8449245550
0$
#8483173100
1#
#8483177800
0#
#8483180075
1#
#8483195625
0#
#8483207475
1#
#8483220750
0#
#8483221075
1#
#8483222750
0#
#8483234750
1#
#8483241150
0#
#8483250150
1#
#8483270775
0#
#8483287050
1#
#8483304600
0#
#8483326525
1#
#8483341325
0#
#8483360075
1#
#8483381800
0#
#8483393350
1#
#8483401900
0#
#8483416375
1#
#8483436950
0#
#8483457525
1#
#8483472275
0#
#8483479425
1#
#8483500550
0#
#8483523100
1#
#8483539875
0#
#8483554800
1#
#8483566000
0#
#8483587425
1#
#8483595000
0#
#8483616500
1#
#8483617975
0#
#8483627175
1#
#8483634075
0#
#8483650500
1#
#8483661925
0#
#8483683925
1#
#8483701800
0#
#8483702875
1#
#8483726700
0#
#8483746025
1#
#8483769000
0#
#8483774350
1#
#8483789325
0#
#8483803275
1#
#8483816200
0#
#8483822375
1#
#8483837175
0#
#8483859325
1#
#8483862125
0#
#8483881575
1#
#8483893450
0#
#8483893975
1#
#8483901400
0#
#8483902275
1#
#8483907550
0#
#8483923000
1#
#8483942775
0#
#8483965950
1#
#8483974175
0#
#8483996725
1#
#8484020875
0#
#8484042525
1#
#8484058600
0#
#8484074025
1#
#8484087675
0#
#8484099975
1#
#8484109300
0#
#8484126050
1#
#8484132875
0#
#8484141075
1#
#8484163950
0#
#8484168825
1#
#8484184775
0#
#8484200300
1#
#8484206850
0#
#8484216825
1#
#8484240950
0#
#8484251350
1#
#8484253450
0#
#8484264625
1#
#8484268100
0#
#8484271950
1#
#8484277950
0#
#8484300550
1#
#8484316275
0#
#8484335575
1#
#8484338125
0#
#8484358275
1#
#8484366925
0#
#8484378550
1#
#8484393400
0#
#8484409600
1#
#8484423075
0#
#8484447225
1#
#8484456650
0#
#8484462300
1#
#8484473725
0#
#8484482750
1#
#8484490750
0#
#8484498225
1#
#8484499600
0#
#8484509200
1#
#8484526000
0#
#8484540375
1#
#8484563375
0#
#8484586050
1#
#8484598425
0#
#8484606125
1#
#8484611050
0#
#8484620025
1#
#8484632950
0#
#8484639975
1#
#8484640875
0#
#8484660875
1#
#8484678600
0#
#8484695900
1#
#8484709700
0#
#8484733975
1#
#8484749200
0#
#8484762075
1#
#8484778075
0#
#8484787075
1#
#8484792000
0#
#8484798875
1#
#8484807450
0#
#8484820300
1#
#8484834675
0#
#8484835200
1#
#8484859075
0#
#8484862350
1#
#8484881325
0#
#8484903875
1#
#8484905550
0#
#8484917325
1#
#8484931100
0#
#8484938200
1#
#8484948900
0#
#8484963675
1#
#8484973375
0#
#8484993625
1#
#8485000275
0#
#8485022000
1#
#8485039600
0#
#8485060950
1#
#8485082050
0#
#8485095325
1#
#8485117825
0#
#8485118600
1#
#8485140750
0#
#8485157950
1#
#8485160625
0#
#8485176725
1#
#8485198500
0#
#8485202675
1#
#8485216650
0#
#8485222675
1#
#8485228625
0#
#8485245800
1#
#8485249950
0#
#8485251025
1#
#8485269500
0#
#8485278250
1#
#8485295825
0#
#8485301200
1#
#8485307650
0#
#8485327950
1#
#8485336400
0#
#8485341625
1#
#8485348050
0#
#8485371325
1#
#8485372225
0#
#8485392675
1#
#8485396350
0#
#8485396800
1#
#8485411300
0#
#8485414875
1#
#8485422100
0#
#8485434150
1#
#8704594400
1&
#9066488675
0#
#9066519625
1#
#9066549225
0#
#9066549675
1#
#9066574100
0#
#9066588000
1#
#9066590625
0#
#9066607400
1#
#9066636725
0#
#9066638200
1#
#9066648175
0#
#9066661725
1#
#9066672675
0#
#9066686400
1#
#9066699025
0#
#9066726375
1#
#9066750800
0#
#9066778850
1#
#9066794350
0#
#9066814200
1#
#9066840325
0#
#9066860250
1#
#9066877500
0#
#9066903400
1#
#9066929175
0#
#9066934075
1#
#9066935725
0#
#9066962925
1#
#9066965675
0#
#9066968600
1#
#9066985050
0#
#9067001250
1#
#9067001325
0#
#9067003600
1#
#9067030200
0#
#9067051400
1#
#9067072375
0#
#9067089925
1#
#9067114775
0#
#9067144350
1#
#9067159550
0#
#9067179425
1#
#9067205525
0#
#9067225325
1#
#9067244850
0#
#9067271550
1#
#9067296500
0#
#9067310975
1#
#9067341125
0#
#9067371675
1#
#9067400525
0#
#9067416750
1#
#9067441600
0#
#9067452025
1#
#9067452500
0#
#9067462700
1#
#9067490050
0#
#9067504000
1#
#9067515650
0#
#9067542625
1#
#9067558725
0#
#9067589450
1#
#9067596900
0#
#9067619475
1#
#9067624375
0#
#9067624600
1#
#9067645575
0#
#9067677100
1#
#9067681425
0#
#9067702000
1#
#9067728100
0#
#9067757950
1#
#9067764050
0#
#9067786575
1#
#9067792825
0#
#9067824175
1#
#9067843675
0#
#9067861150
1#
#9067884600
0#
#9067886625
1#
#9067913475
0#
#9067928325
1#
#9067944325
0#
#9067948450
1#
#9067962100
0#
#9067977025
1#
#9068004525
0#
#9068019450
1#
#9068031700
0#
#9068062400
1#
#9068077775
0#
#9068106600
1#
#9068110975
0#
#9068123300
1#
#9068128125
0#
#9068139675
1#
#9068141125
0#
#9068156500
1#
#9068158600
0#
#9068170625
1#
#9068190825
0#
#9068217575
1#
#9068249125
0#
#9068276175
1#
#9068304475
0#
#9068325150
1#
#9068331650
0#
#9068351550
1#
#9068368450
0#
#9068398400
1#
#9068409375
0#
#9068428175
1#
#9068442125
0#
#9068468675
1#
#9068495375
0#
#9068503850
1#
#9068510400
0#
#9068541100
1#
#9068561050
0#
#9068586375
1#
#9068611950
0#
#9068617175
1#
#9068634600
0#
#9068644300
1#
#9068656600
0#
#9068659675
1#
#9068668600
0#
#9068676550
1#
#9068680650
0#
#9068711925
1#
#9068737975
0#
#9068750150
1#
#9068756075
0#
#9068772500
1#
#9068791400
0#
#9068800850
1#
#9068815725
0#
#9068824525
1#
#9068846750
0#
#9095582375
0%
#9095647125
1$
#9095658375
0$
#9095825625
1$
#9095836875
0$
#9097976075
1%
#9098040325
1$
#9098051575
0$
#9098218575
1$
#9098229825
0$
#9098411575
1$
#9098422825
0$
#9098593550
1$
#9098604800
0$
#9098786550
1$
#9098797800
0$
#9098964550
1$
#9098975800
0$
#9099157550
1$
#9099168800
0$
#9099335800
1$
#9099347050
0$
#9099528800
1$
#9099540050
0$
#9099707525
1$
#9099718775
0$
#9099900525
1$
#9099911775
0$
#9100078500
1$
#9100089750
0$
#9100271500
1$
#9100282750
0$
#9100449750
1$
#9100461000
0$
#9100643500
1$
#9100654750
0$
#9100822250
1$
#9100833500
0$
#9101039500
1$
#9101050750
0$
#9101218250
1$
#9101229500
0$
#9177696150
1#
#9177727625
0#
#9177748225
1#
#9177770175
0#
#9177774725
1#
#9177799475
0#
#9177829050
1#
#9177850900
0#
#9177875975
1#
#9177906725
0#
#9177947650
1#
#9177967700
0#
#9178005350
1#
#9178033725
0#
#9178044650
1#
#9178086150
0#
#9178115925
1#
#9178155175
0#
#9178175275
1#
#9178204550
0#
#9178240075
1#
#9178267750
0#
#9178295200
1#
#9178324750
0#
#9178340700
1#
#9178347250
0#
#9178357050
1#
#9178387325
0#
#9178412675
1#
#9178433925
0#
#9178453075
1#
#9178471625
0#
#9178494350
1#
#9178505225
0#
#9178545175
1#
#9178579650
0#
#9178612550
1#
#9178623400
0#
#9178661375
1#
#9178663400
0#
#9178703400
1#
#9178720100
0#
#9178756800
1#
#9178789875
0#
#9178827900
1#
#9178856450
0#
#9178862075
1#
#9178867775
0#
#9178890050
1#
#9178924375
0#
#9178925075
1#
#9178952875
0#
#9178984525
1#
#9178999575
0#
#9179012725
1#
#9179015775
0#
#9179020475
1#
#9179044475
0#
#9179083350
1#
#9179102750
0#
#9179131225
1#
#9179160275
0#
#9179163200
1#
#9179174850
0#
#9179208000
1#
#9179240600
0#
#9179265550
1#
#9179284100
0#
#9179322775
1#
#9179347450
0#
#9179375500
1#
#9179384800
0#
#9179413050
1#
#9179449500
0#
#9179469400
1#
#9179489050
0#
#9179503825
1#
#9179524825
0#
#9179540950
1#
#9179563075
0#
#9179594025
1#
#9179608025
0#
#9179645850
1#
#9179665100
0#
#9179694475
1#
#9179713800
0#
#9179716250
1#
#9179731625
0#
#9179772875
1#
#9179805200
0#
#9179807375
1#
#9179812075
0#
#9179829075
1#
#9179840525
0#
#9179854525
1#
#9179884975
0#
#9179907550
1#
#9179910775
0#
#9179922550
1#
#9179944550
0#
#9179963300
1#
#9179987725
0#
#9180013975
1#
#9180051125
0#
#9180073725
1#
#9216609850
0&
#9728550300
1&
#10240561000
0&
#10752556200
1&
#10913694175
0!
#10913699025
1!
#10913723175
0!
#10913745025
1!
#10913755575
0!
#10913782575
1!
#10913799125
0!
#10913805800
1!
#10913830675
0!
#10913843700
1!
#10913870825
0!
#10913873525
1!
#10913880600
0!
#10913890850
1!
#10913906000
0!
#10913924175
1!
#10913945850
0!
#10913953425
1!
#10913978875
0!
#10913980700
1!
#10913992350
0!
#10914021925
1!
#10914048225
0!
#10914057675
1!
#10914074475
0!
#10914097550
1!
#10914112800
0!
#10914143850
1!
#10914166000
0!
#10914174550
1!
#10914189950
0!
#10914203925
1!
#10914220250
0!
#10914228875
1!
#10914244900
0!
#10914249925
1!
#10914269850
0!
#10914281825
1!
#10914283400
0!
#10914312150
1!
#10914327325
0!
#10914356400
1!
#10914372450
0!
#10914380150
1!
#10914380575
0!
#10914382900
1!
#10914397825
0!
#10914422650
1!
#10914429025
0!
#10914453975
1!
#10914481275
0!
#10914487875
1!
#10914506600
0!
#10914516600
1!
#10914521675
0!
#10914552925
1!
#10914575900
0!
#10914589800
1!
#10914600375
0!
#10914630350
1!
#10914659525
0!
#10914680800
1!
#10914706025
0!
#10914725325
1!
#10914755450
0!
#10914784850
1!
#10914815425
0!
#10914839500
1!
#10914851925
0!
#10914863675
1!
#10914872200
0!
#10914892825
1!
#10914915050
0!
#10914944875
1!
#10914969825
0!
#10914978225
1!
#10915000175
0!
#10915000625
1!
#10915011500
0!
#10915041525
1!
#10915058675
0!
#10915077850
1!
#10915079950
0!
#10915102350
1!
#10915129275
0!
#10915158550
1!
#10915163150
0!
#10915190075
1!
#10915198075
0!
#10915206675
1!
#10915229800
0!
#10915239325
1!
#10915258100
0!
#10915284900
1!
#10915311900
0!
#10915313250
1!
#10915321375
0!
#10915324025
1!
#10915335500
0!
#10915353875
1!
#10915356475
0!
#10915373225
1!
#10915399450
0!
#10915427600
1!
#10915457600
0!
#10915470975
1!
#10915502525
0!
#10915505875
1!
#10915531625
0!
#10915537950
1!
#10915549925
0!
#10915564025
1!
#10915566325
0!
#10915597500
1!
#10915600925
0!
#10915603950
1!
#10915622350
0!
#10915631050
1!
#10915642925
0!
#10915654950
1!
#10915684075
0!
#10915715675
1!
#10915720275
0!
#10915740275
1!
#10915767525
0!
#10915786525
1!
#10915808400
0!
#10915819675
1!
#10915832650
0!
#10915848225
1!
#10915861375
0!
#10915881625
1!
#10915889975
0!
#10915901650
1!
#10915932450
0!
#10915951075
1!
#10915974825
0!
#10915975050
1!
#10915983375
0!
#11003990975
1!
#11004026825
0!
#11004073925
1!
#11004119275
0!
#11004152175
1!
#11004177475
0!
#11004202725
1!
#11004236425
0!
#11004257600
1!
#11004304825
0!
#11004313350
1!
#11004313700
0!
#11004340725
1!
#11004382675
0!
#11004419625
1!
#11004438050
0!
#11004460775
1!
#11004476350
0!
#11004512150
1!
#11004516775
0!
#11004528600
1!
#11004535000
0!
#11004548725
1!
#11004593975
0!
#11004613600
1!
#11004650825
0!
#11004668750
1!
#11004706825
0!
#11004738950
1!
#11004749475
0!
#11004792375
1!
#11004797425
0!
#11004840550
1!
#11004845525
0!
#11004892075
1!
#11004932775
0!
#11004958025
1!
#11004962325
0!
#11004981650
1!
#11004988925
0!
#11004994975
1!
#11005019375
0!
#11005042075
1!
#11005070050
0!
#11005101750
1!
#11005112350
0!
#11005145700
1!
#11005183975
0!
#11005199625
1!
#11005212925
0!
#11005226575
1!
#11005238950
0!
#11005261525
1!
#11005295375
0!
#11005303225
1!
#11005329400
0!
#11005361850
1!
#11005371875
0!
#11005412550
1!
#11005452825
0!
#11005453600
1!
#11005473700
0!
#11005501325
1!
#11005537425
0!
#11005575450
1!
#11005585550
0!
#11005630825
1!
#11005662850
0!
#11005679650
1!
#11005715700
0!
#11005717625
1!
#11005721175
0!
#11005759850
1!
#11005779250
0!
#11005803300
1!
#11005812550
0!
